[
    {
      "origin": ["http://localhost:3000"],
      "responseHeader": ["Content-Type", "Access-Control-Allow-Origin"],
      "method": ["GET", "HEAD", "DELETE"],
      "maxAgeSeconds": 3600
    }
]